date,SPY,^GSPC,^VIX
2020-01-02,306.2952575683594,3257.85009765625,12.470000267028809
2020-01-03,303.9759521484375,3234.85009765625,14.020000457763672
2020-01-06,305.1355895996094,3246.280029296875,13.850000381469727
2020-01-07,304.2776794433594,3237.179931640625,13.789999961853027
2020-01-08,305.89935302734375,3253.050048828125,13.449999809265137
2020-01-09,307.97344970703125,3274.699951171875,12.539999961853027
2020-01-10,307.0873107910156,3265.35009765625,12.5600004196167
2020-01-13,309.19921875,3288.1298828125,12.319999694824219
2020-01-14,308.72772216796875,3283.14990234375,12.390000343322754
2020-01-15,309.42547607421875,3289.2900390625,12.420000076293945
2020-01-16,311.99932861328125,3316.81005859375,12.319999694824219
2020-01-17,312.9704895019531,3329.6201171875,12.100000381469727
2020-01-21,312.3575744628906,3320.7900390625,12.850000381469727
2020-01-22,312.39532470703125,3321.75,12.90999984741211
2020-01-23,312.75360107421875,3325.5400390625,12.979999542236328
2020-01-24,309.9722595214844,3295.469970703125,14.5600004196167
2020-01-27,305.0035705566406,3243.6298828125,18.229999542236328
2020-01-28,308.1997985839844,3276.239990234375,16.280000686645508
2020-01-29,307.9452209472656,3273.39990234375,16.389999389648438
2020-01-30,308.94464111328125,3283.659912109375,15.489999771118164
2020-01-31,303.3348083496094,3225.52001953125,18.84000015258789
2020-02-03,305.588134765625,3248.919921875,17.969999313354492
2020-02-04,310.2457275390625,3297.590087890625,16.049999237060547
2020-02-05,313.8284606933594,3334.68994140625,15.149999618530273
2020-02-06,314.8843994140625,3345.780029296875,14.960000038146973
2020-02-07,313.20611572265625,3327.7099609375,15.470000267028809
2020-02-10,315.5442810058594,3352.090087890625,15.039999961853027
2020-02-11,316.0911865234375,3357.75,15.180000305175781
2020-02-12,318.12774658203125,3379.449951171875,13.739999771118164
2020-02-13,317.78826904296875,3373.93994140625,14.149999618530273
2020-02-14,318.2973937988281,3380.159912109375,13.680000305175781
2020-02-18,317.4771728515625,3370.2900390625,14.829999923706055
2020-02-19,318.9950866699219,3386.14990234375,14.380000114440918
2020-02-20,317.68463134765625,3373.22998046875,15.5600004196167
2020-02-21,314.4129943847656,3337.75,17.079999923706055
2020-02-24,303.9853515625,3225.889892578125,25.030000686645508
2020-02-25,294.77392578125,3128.2099609375,27.850000381469727
2020-02-26,293.6897277832031,3116.389892578125,27.559999465942383
2020-02-27,280.49957275390625,2978.760009765625,39.15999984741211
2020-02-28,279.321044921875,2954.219970703125,40.11000061035156
2020-03-02,291.4175109863281,3090.22998046875,33.41999816894531
2020-03-03,283.073486328125,3003.3701171875,36.81999969482422
2020-03-04,294.9719543457031,3130.1201171875,31.989999771118164
2020-03-05,285.1665344238281,3023.93994140625,39.619998931884766
2020-03-06,280.4524230957031,2972.3701171875,41.939998626708984
2020-03-09,258.5506896972656,2746.56005859375,54.459999084472656
2020-03-10,271.9293212890625,2882.22998046875,47.29999923706055
2020-03-11,258.6732482910156,2741.3798828125,53.900001525878906
2020-03-12,233.92408752441406,2480.639892578125,75.47000122070312
2020-03-13,253.92138671875,2711.02001953125,57.83000183105469
2020-03-16,226.1363525390625,2386.1298828125,82.69000244140625
2020-03-17,238.34593200683594,2529.18994140625,75.91000366210938
2020-03-18,226.2777862548828,2398.10009765625,76.44999694824219
2020-03-19,226.7586212158203,2409.389892578125,72.0
2020-03-20,216.98666381835938,2304.919921875,66.04000091552734
2020-03-23,211.43870544433594,2237.39990234375,61.59000015258789
2020-03-24,230.59571838378906,2447.330078125,61.66999816894531
2020-03-25,234.04774475097656,2475.56005859375,63.95000076293945
2020-03-26,247.71377563476562,2630.070068359375,61.0
2020-03-27,240.33543395996094,2541.469970703125,65.54000091552734
2020-03-30,248.14053344726562,2626.64990234375,57.08000183105469
2020-03-31,244.44189453125,2584.590087890625,53.540000915527344
2020-04-01,233.44082641601562,2470.5,57.060001373291016
2020-04-02,238.82757568359375,2526.89990234375,50.90999984741211
2020-04-03,235.37550354003906,2488.64990234375,46.79999923706055
2020-04-06,251.18475341796875,2663.679931640625,45.2400016784668
2020-04-07,251.44081115722656,2659.409912109375,46.70000076293945
2020-04-08,259.88134765625,2749.97998046875,43.349998474121094
2020-04-09,263.83599853515625,2789.820068359375,41.66999816894531
2020-04-13,261.4272155761719,2761.6298828125,41.16999816894531
2020-04-14,269.1374206542969,2846.06005859375,37.7599983215332
2020-04-15,263.41876220703125,2783.360107421875,40.84000015258789
2020-04-16,264.6895751953125,2799.550048828125,40.11000061035156
2020-04-17,271.84027099609375,2874.56005859375,38.150001525878906
2020-04-20,267.05096435546875,2823.159912109375,43.83000183105469
2020-04-21,258.9425048828125,2736.56005859375,45.40999984741211
2020-04-22,264.6895751953125,2799.31005859375,41.97999954223633
2020-04-23,264.6705627441406,2797.800048828125,41.380001068115234
2020-04-24,268.3597412109375,2836.739990234375,35.93000030517578
2020-04-27,272.2290954589844,2878.47998046875,33.290000915527344
2020-04-28,270.9771728515625,2863.389892578125,33.56999969482422
2020-04-29,278.071044921875,2939.510009765625,31.229999542236328
2020-04-30,275.4819641113281,2912.429931640625,34.150001525878906
2020-05-01,268.1890869140625,2830.7099609375,37.189998626708984
2020-05-04,268.92877197265625,2842.739990234375,35.970001220703125
2020-05-05,271.41351318359375,2868.43994140625,33.61000061035156
2020-05-06,269.5736389160156,2848.419921875,34.119998931884766
2020-05-07,272.8265686035156,2881.18994140625,31.440000534057617
2020-05-08,277.3408203125,2929.800048828125,27.979999542236328
2020-05-11,277.3976745605469,2930.18994140625,27.56999969482422
2020-05-12,271.86871337890625,2870.1201171875,33.040000915527344
2020-05-13,267.0604553222656,2820.0,35.279998779296875
2020-05-14,270.2565002441406,2852.5,32.61000061035156
2020-05-15,271.49884033203125,2863.699951171875,31.889999389648438
2020-05-18,279.7685546875,2953.909912109375,29.299999237060547
2020-05-19,276.89501953125,2922.93994140625,30.530000686645508
2020-05-20,281.5989685058594,2971.610107421875,27.989999771118164
2020-05-21,279.65478515625,2948.510009765625,29.530000686645508
2020-05-22,280.1858825683594,2955.449951171875,28.15999984741211
2020-05-26,283.637939453125,2991.77001953125,28.010000228881836
2020-05-27,287.8581237792969,3036.1298828125,27.6200008392334
2020-05-28,287.3271179199219,3029.72998046875,28.59000015258789
2020-05-29,288.60736083984375,3044.31005859375,27.510000228881836
2020-06-01,289.7738342285156,3055.72998046875,28.229999542236328
2020-06-02,292.1731872558594,3080.820068359375,26.84000015258789
2020-06-03,296.0615234375,3122.8701171875,25.65999984741211
2020-06-04,295.2839050292969,3112.35009765625,25.809999465942383
2020-06-05,302.8519287109375,3193.929931640625,24.520000457763672
2020-06-08,306.5126037597656,3232.389892578125,25.809999465942383
2020-06-09,304.22698974609375,3207.179931640625,27.56999969482422
2020-06-10,302.5293884277344,3190.139892578125,27.56999969482422
2020-06-11,285.0889892578125,3002.10009765625,40.790000915527344
2020-06-12,288.5030822753906,3041.31005859375,36.09000015258789
2020-06-15,291.1964416503906,3066.590087890625,34.400001525878906
2020-06-16,296.8013000488281,3124.739990234375,33.66999816894531
2020-06-17,295.5684814453125,3113.489990234375,33.470001220703125
2020-06-18,295.68231201171875,3115.340087890625,32.939998626708984
2020-06-19,293.9924011230469,3097.739990234375,35.119998931884766
2020-06-22,295.8784484863281,3117.860107421875,31.770000457763672
2020-06-23,297.2405700683594,3131.2900390625,31.3700008392334
2020-06-24,289.6583557128906,3050.330078125,33.84000015258789
2020-06-25,292.76361083984375,3083.760009765625,32.220001220703125
2020-06-26,285.8100891113281,3009.050048828125,34.72999954223633
2020-06-29,290.0107727050781,3053.239990234375,31.780000686645508
2020-06-30,293.7256774902344,3100.2900390625,30.43000030517578
2020-07-01,295.7832336425781,3115.860107421875,28.6200008392334
2020-07-02,297.4119873046875,3130.010009765625,27.68000030517578
2020-07-06,302.0032653808594,3179.719970703125,27.940000534057617
2020-07-07,298.88848876953125,3145.320068359375,29.43000030517578
2020-07-08,301.1745300292969,3169.93994140625,28.079999923706055
2020-07-09,299.4599914550781,3152.050048828125,29.260000228881836
2020-07-10,302.5176696777344,3185.0400390625,27.290000915527344
2020-07-13,299.89825439453125,3155.219970703125,32.189998626708984
2020-07-14,303.7845764160156,3197.52001953125,29.520000457763672
2020-07-15,306.5755310058594,3226.56005859375,27.760000228881836
2020-07-16,305.56573486328125,3215.570068359375,28.0
2020-07-17,306.4516906738281,3224.72998046875,25.68000030517578
2020-07-20,308.92828369140625,3251.840087890625,24.459999084472656
2020-07-21,309.58551025390625,3257.300048828125,24.84000015258789
2020-07-22,311.34771728515625,3276.02001953125,24.31999969482422
2020-07-23,307.6327819824219,3235.659912109375,26.079999923706055
2020-07-24,305.6515808105469,3215.6298828125,25.84000015258789
2020-07-27,307.8805236816406,3239.409912109375,24.739999771118164
2020-07-28,305.92779541015625,3218.43994140625,25.440000534057617
2020-07-29,309.6903076171875,3258.43994140625,24.100000381469727
2020-07-30,308.5853576660156,3246.219970703125,24.760000228881836
2020-07-31,311.02386474609375,3271.1201171875,24.459999084472656
2020-08-03,313.1861877441406,3294.610107421875,24.280000686645508
2020-08-04,314.3958435058594,3306.510009765625,23.760000228881836
2020-08-05,316.34857177734375,3327.77001953125,22.989999771118164
2020-08-06,318.4632263183594,3349.159912109375,22.649999618530273
2020-08-07,318.69183349609375,3351.280029296875,22.209999084472656
2020-08-10,319.6443786621094,3360.469970703125,22.1299991607666
2020-08-11,317.0058288574219,3333.68994140625,24.030000686645508
2020-08-12,321.42559814453125,3380.35009765625,22.280000686645508
2020-08-13,320.8445739746094,3373.429931640625,22.1299991607666
2020-08-14,320.8540344238281,3372.85009765625,22.049999237060547
2020-08-17,321.873291015625,3381.989990234375,21.350000381469727
2020-08-18,322.56866455078125,3389.780029296875,21.510000228881836
2020-08-19,321.2256164550781,3374.85009765625,22.540000915527344
2020-08-20,322.22576904296875,3385.510009765625,22.719999313354492
2020-08-21,323.36883544921875,3397.159912109375,22.540000915527344
2020-08-24,326.64556884765625,3431.280029296875,22.3700008392334
2020-08-25,327.7885437011719,3443.6201171875,22.030000686645508
2020-08-26,331.07489013671875,3478.72998046875,23.270000457763672
2020-08-27,331.7987976074219,3484.550048828125,24.469999313354492
2020-08-28,333.9419860839844,3508.010009765625,22.959999084472656
2020-08-31,332.7322998046875,3500.31005859375,26.40999984741211
2020-09-01,335.8660888671875,3526.64990234375,26.1200008392334
2020-09-02,340.7240905761719,3580.840087890625,26.56999969482422
2020-09-03,328.998291015625,3455.06005859375,33.599998474121094
2020-09-04,326.3121337890625,3426.9599609375,30.75
2020-09-08,317.3963317871094,3331.840087890625,31.459999084472656
2020-09-09,323.6641540527344,3398.9599609375,28.809999465942383
2020-09-10,318.04412841796875,3339.18994140625,29.709999084472656
2020-09-11,318.20599365234375,3340.969970703125,26.8700008392334
2020-09-14,322.3971862792969,3383.5400390625,25.850000381469727
2020-09-15,324.02606201171875,3401.199951171875,25.59000015258789
2020-09-16,322.7401123046875,3385.489990234375,26.040000915527344
2020-09-17,319.90155029296875,3357.010009765625,26.459999084472656
2020-09-18,316.21856689453125,3319.469970703125,25.829999923706055
2020-09-21,312.69921875,3281.06005859375,27.780000686645508
2020-09-22,315.8838806152344,3315.570068359375,26.860000610351562
2020-09-23,308.5581970214844,3236.919921875,28.579999923706055
2020-09-24,309.38067626953125,3246.590087890625,28.510000228881836
2020-09-25,314.3824157714844,3298.4599609375,26.3799991607666
2020-09-28,319.60418701171875,3351.60009765625,26.190000534057617
2020-09-29,317.8635559082031,3335.469970703125,26.270000457763672
2020-09-30,320.2735595703125,3363.0,26.3700008392334
2020-10-01,322.3297424316406,3380.800048828125,26.700000762939453
2020-10-02,319.2694091796875,3348.419921875,27.6299991607666
2020-10-05,324.9310607910156,3408.60009765625,27.959999084472656
2020-10-06,320.31182861328125,3360.969970703125,29.479999542236328
2020-10-07,325.88739013671875,3419.43994140625,28.059999465942383
2020-10-08,328.7756042480469,3446.830078125,26.360000610351562
2020-10-09,331.71160888671875,3477.139892578125,25.0
2020-10-12,337.04803466796875,3534.219970703125,25.06999969482422
2020-10-13,334.84844970703125,3511.929931640625,26.06999969482422
2020-10-14,332.7444152832031,3488.669921875,26.399999618530273
2020-10-15,332.3332214355469,3483.340087890625,26.969999313354492
2020-10-16,332.13232421875,3483.81005859375,27.40999984741211
2020-10-19,327.08282470703125,3426.919921875,29.18000030517578
2020-10-20,328.39300537109375,3443.1201171875,29.350000381469727
2020-10-21,327.7713928222656,3435.56005859375,28.649999618530273
2020-10-22,329.5693359375,3453.489990234375,28.110000610351562
2020-10-23,330.68829345703125,3465.389892578125,27.549999237060547
2020-10-26,324.5771789550781,3400.969970703125,32.459999084472656
2020-10-27,323.4582824707031,3390.679931640625,33.349998474121094
2020-10-28,312.4027404785156,3271.030029296875,40.279998779296875
2020-10-29,315.5778503417969,3310.110107421875,37.59000015258789
2020-10-30,312.28802490234375,3269.9599609375,38.02000045776367
2020-11-02,315.7882995605469,3310.239990234375,37.130001068115234
2020-11-03,321.36383056640625,3369.159912109375,35.54999923706055
2020-11-04,328.5460510253906,3443.43994140625,29.56999969482422
2020-11-05,334.9535827636719,3510.449951171875,27.579999923706055
2020-11-06,334.8771057128906,3509.43994140625,24.860000610351562
2020-11-09,339.08502197265625,3550.5,25.75
2020-11-10,338.5877380371094,3545.530029296875,24.799999237060547
2020-11-11,341.1029357910156,3572.659912109375,23.450000762939453
2020-11-12,337.7939453125,3537.010009765625,25.350000381469727
2020-11-13,342.47052001953125,3585.14990234375,23.100000381469727
2020-11-16,346.7454833984375,3626.909912109375,22.450000762939453
2020-11-17,344.8805236816406,3609.530029296875,22.709999084472656
2020-11-18,340.7300109863281,3567.7900390625,23.84000015258789
2020-11-19,342.1645812988281,3581.8701171875,23.110000610351562
2020-11-20,339.8214416503906,3557.5400390625,23.700000762939453
2020-11-23,341.8585205078125,3577.590087890625,22.65999984741211
2020-11-24,347.3670654296875,3635.409912109375,21.639999389648438
2020-11-25,346.8315124511719,3629.64990234375,21.25
2020-11-27,347.7975158691406,3638.35009765625,20.84000015258789
2020-11-30,346.25775146484375,3621.6298828125,20.56999969482422
2020-12-01,350.0448303222656,3662.449951171875,20.770000457763672
2020-12-02,350.7812194824219,3669.010009765625,21.170000076293945
2020-12-03,350.6856689453125,3666.719970703125,21.280000686645508
2020-12-04,353.70770263671875,3699.1201171875,20.790000915527344
2020-12-07,352.98089599609375,3691.9599609375,21.299999237060547
2020-12-08,354.0137939453125,3702.25,20.68000030517578
2020-12-09,350.838623046875,3672.820068359375,22.270000457763672
2020-12-10,350.723876953125,3668.10009765625,22.520000457763672
2020-12-11,350.3126525878906,3663.4599609375,23.309999465942383
2020-12-14,348.7442626953125,3647.489990234375,24.719999313354492
2020-12-15,353.4590759277344,3694.6201171875,22.889999389648438
2020-12-16,354.0137939453125,3701.169921875,22.5
2020-12-17,355.9934387207031,3722.47998046875,21.93000030517578
2020-12-18,354.57196044921875,3709.409912109375,21.56999969482422
2020-12-21,353.3041687011719,3694.919921875,25.15999984741211
2020-12-22,352.7087097167969,3687.260009765625,24.229999542236328
2020-12-23,353.0256652832031,3690.010009765625,23.309999465942383
2020-12-24,354.39910888671875,3703.06005859375,21.530000686645508
2020-12-28,357.44366455078125,3735.360107421875,21.700000762939453
2020-12-29,356.7617492675781,3727.0400390625,23.079999923706055
2020-12-30,357.27081298828125,3732.0400390625,22.770000457763672
2020-12-31,359.0859680175781,3756.070068359375,22.75
2021-01-04,354.1973876953125,3700.64990234375,26.969999313354492
2021-01-05,356.6368408203125,3726.860107421875,25.34000015258789
2021-01-06,358.7690734863281,3748.139892578125,25.06999969482422
2021-01-07,364.09942626953125,3803.7900390625,22.3700008392334
2021-01-08,366.1739807128906,3824.679931640625,21.559999465942383
2021-01-11,363.7056579589844,3799.610107421875,24.079999923706055
2021-01-12,363.7825012207031,3801.18994140625,23.329999923706055
2021-01-13,364.7621765136719,3809.840087890625,22.209999084472656
2021-01-14,363.48480224609375,3795.5400390625,23.25
2021-01-15,360.83392333984375,3768.25,24.34000015258789
2021-01-19,363.66729736328125,3798.909912109375,23.239999771118164
2021-01-20,368.6999816894531,3851.85009765625,21.579999923706055
2021-01-21,369.0359802246094,3853.070068359375,21.31999969482422
2021-01-22,367.7298583984375,3841.469970703125,21.90999984741211
2021-01-25,369.1801452636719,3855.360107421875,23.190000534057617
2021-01-26,368.6038513183594,3849.6201171875,23.020000457763672
2021-01-27,359.5950012207031,3750.77001953125,37.209999084472656
2021-01-28,362.6875915527344,3787.3798828125,30.209999084472656
2021-01-29,355.4267272949219,3714.239990234375,33.09000015258789
2021-02-01,361.3429870605469,3773.860107421875,30.239999771118164
2021-02-02,366.4524841308594,3826.31005859375,25.559999465942383
2021-02-03,366.74066162109375,3830.169921875,22.90999984741211
2021-02-04,370.9089660644531,3871.739990234375,21.770000457763672
2021-02-05,372.3687438964844,3886.830078125,20.8700008392334
2021-02-08,375.0579833984375,3915.590087890625,21.239999771118164
2021-02-09,374.8082275390625,3911.22998046875,21.6299991607666
2021-02-10,374.64501953125,3909.8798828125,21.989999771118164
2021-02-11,375.25,3916.3798828125,21.25
2021-02-12,377.10369873046875,3934.830078125,19.969999313354492
2021-02-16,376.77716064453125,3932.590087890625,21.459999084472656
2021-02-17,376.86358642578125,3931.330078125,21.5
2021-02-18,375.2596740722656,3913.969970703125,22.489999771118164
2021-02-19,374.5969543457031,3906.7099609375,22.049999237060547
2021-02-22,371.7156677246094,3876.5,23.450000762939453
2021-02-23,372.16705322265625,3881.3701171875,23.110000610351562
2021-02-24,376.2680969238281,3925.429931640625,21.34000015258789
2021-02-25,367.2016296386719,3829.340087890625,28.889999389648438
2021-02-26,365.3095703125,3811.14990234375,27.950000762939453
2021-03-01,374.164794921875,3901.820068359375,23.350000381469727
2021-03-02,371.2450866699219,3870.2900390625,24.100000381469727
2021-03-03,366.3276672363281,3819.719970703125,26.670000076293945
2021-03-04,361.79437255859375,3768.469970703125,28.56999969482422
2021-03-05,368.4501953125,3841.93994140625,24.65999984741211
2021-03-08,366.61578369140625,3821.35009765625,25.469999313354492
2021-03-09,371.8501281738281,3875.43994140625,24.030000686645508
2021-03-10,374.164794921875,3898.81005859375,22.559999465942383
2021-03-11,377.95849609375,3939.340087890625,21.90999984741211
2021-03-12,378.46746826171875,3943.340087890625,20.690000534057617
2021-03-15,380.7244873046875,3968.93994140625,20.030000686645508
2021-03-16,380.2442932128906,3962.7099609375,19.790000915527344
2021-03-17,381.5408630371094,3974.1201171875,19.229999542236328
2021-03-18,375.98956298828125,3915.4599609375,21.579999923706055
2021-03-19,375.2939147949219,3913.10009765625,20.950000762939453
2021-03-22,378.2906494140625,3940.590087890625,18.8799991607666
2021-03-23,375.31317138671875,3910.52001953125,20.299999237060547
2021-03-24,373.4052429199219,3889.139892578125,21.200000762939453
2021-03-25,375.5058898925781,3909.52001953125,19.809999465942383
2021-03-26,381.5571594238281,3974.5400390625,18.860000610351562
2021-03-29,381.3644104003906,3971.090087890625,20.739999771118164
2021-03-30,380.3526306152344,3958.550048828125,19.610000610351562
2021-03-31,381.8944091796875,3972.889892578125,19.399999618530273
2021-04-01,386.0184326171875,4019.8701171875,17.329999923706055
2021-04-05,391.55902099609375,4077.909912109375,17.90999984741211
2021-04-06,391.3278503417969,4073.93994140625,18.1200008392334
2021-04-07,391.7806701660156,4079.949951171875,17.15999984741211
2021-04-08,393.6403503417969,4097.169921875,16.950000762939453
2021-04-09,396.5022277832031,4128.7998046875,16.690000534057617
2021-04-12,396.6467590332031,4127.990234375,16.90999984741211
2021-04-13,397.822265625,4141.58984375,16.649999618530273
2021-04-14,396.46368408203125,4124.66015625,16.989999771118164
2021-04-15,400.7226257324219,4170.419921875,16.56999969482422
2021-04-16,402.0620422363281,4185.47021484375,16.25
2021-04-19,400.08673095703125,4163.259765625,17.290000915527344
2021-04-20,397.15740966796875,4134.93994140625,18.68000030517578
2021-04-21,400.9153747558594,4173.419921875,17.5
2021-04-22,397.2538146972656,4134.97998046875,18.709999084472656
2021-04-23,401.56103515625,4180.169921875,17.329999923706055
2021-04-26,402.3992614746094,4187.6201171875,17.639999389648438
2021-04-27,402.3125915527344,4186.72021484375,17.559999465942383
2021-04-28,402.1968994140625,4183.18017578125,17.280000686645508
2021-04-29,404.760009765625,4211.47021484375,17.610000610351562
2021-04-30,402.1005859375,4181.169921875,18.610000610351562
2021-05-03,402.96783447265625,4192.66015625,18.309999465942383
2021-05-04,400.4817810058594,4164.66015625,19.479999542236328
2021-05-05,400.6070556640625,4167.58984375,19.149999618530273
2021-05-06,403.8061218261719,4201.6201171875,18.389999389648438
2021-05-07,406.7449951171875,4232.60009765625,16.690000534057617
2021-05-10,402.71722412109375,4188.43017578125,19.65999984741211
2021-05-11,399.1231384277344,4152.10009765625,21.84000015258789
2021-05-12,390.6436462402344,4063.0400390625,27.59000015258789
2021-05-13,395.3362731933594,4112.5,23.1299991607666
2021-05-14,401.4067687988281,4173.85009765625,18.809999465942383
2021-05-17,400.38543701171875,4163.2900390625,19.719999313354492
2021-05-18,396.93585205078125,4127.830078125,21.34000015258789
2021-05-19,395.8951721191406,4115.68017578125,22.18000030517578
2021-05-20,400.1541442871094,4159.1201171875,20.670000076293945
2021-05-21,399.8265380859375,4155.85986328125,20.149999618530273
2021-05-24,403.9024963378906,4197.0498046875,18.399999618530273
2021-05-25,403.00634765625,4188.1298828125,18.84000015258789
2021-05-26,403.8061218261719,4195.990234375,17.360000610351562
2021-05-27,404.01812744140625,4200.8798828125,16.739999771118164
2021-05-28,404.74078369140625,4204.10986328125,16.760000228881836
2021-06-01,404.38433837890625,4202.0400390625,17.899999618530273
2021-06-02,405.02020263671875,4208.1201171875,17.479999542236328
2021-06-03,403.5170593261719,4192.85009765625,18.040000915527344
2021-06-04,407.2075500488281,4229.89013671875,16.420000076293945
2021-06-07,406.8124694824219,4226.52001953125,16.420000076293945
2021-06-08,406.89923095703125,4227.259765625,17.06999969482422
2021-06-09,406.29217529296875,4219.5498046875,17.889999389648438
2021-06-10,408.1807556152344,4239.18017578125,16.100000381469727
2021-06-11,408.8553161621094,4247.43994140625,15.649999618530273
2021-06-14,409.77069091796875,4255.14990234375,16.389999389648438
2021-06-15,409.0191345214844,4246.58984375,17.020000457763672
2021-06-16,406.73541259765625,4223.7001953125,18.149999618530273
2021-06-17,406.6004943847656,4221.85986328125,17.75
2021-06-18,401.11529541015625,4166.4501953125,20.700000762939453
2021-06-21,406.8576354980469,4224.7900390625,17.889999389648438
2021-06-22,409.03277587890625,4246.43994140625,16.65999984741211
2021-06-23,408.5397644042969,4241.83984375,16.31999969482422
2021-06-24,410.9565734863281,4266.490234375,15.970000267028809
2021-06-25,412.4163513183594,4280.7001953125,15.619999885559082
2021-06-28,413.24774169921875,4290.60986328125,15.760000228881836
2021-06-29,413.4700927734375,4291.7998046875,16.020000457763672
2021-06-30,413.818115234375,4297.5,15.829999923706055
2021-07-01,416.1092529296875,4319.93994140625,15.479999542236328
2021-07-02,419.289794921875,4352.33984375,15.069999694824219
2021-07-06,418.5260925292969,4343.5400390625,16.440000534057617
2021-07-07,420.0051574707031,4358.1298828125,16.200000762939453
2021-07-08,416.58294677734375,4320.81982421875,19.0
2021-07-09,421.0298767089844,4369.5498046875,16.18000030517578
2021-07-12,422.5379943847656,4384.6298828125,16.170000076293945
2021-07-13,421.0975646972656,4369.2099609375,17.1200008392334
2021-07-14,421.7259216308594,4374.2998046875,16.329999923706055
2021-07-15,420.2855529785156,4360.02978515625,17.010000228881836
2021-07-16,416.98895263671875,4327.16015625,18.450000762939453
2021-07-19,410.8309020996094,4258.490234375,22.5
2021-07-20,416.7182922363281,4323.06005859375,19.729999542236328
2021-07-21,420.0921630859375,4358.68994140625,17.90999984741211
2021-07-22,420.971923828125,4367.47998046875,17.690000534057617
2021-07-23,425.3028869628906,4411.7900390625,17.200000762939453
2021-07-26,426.3468933105469,4422.2998046875,17.579999923706055
2021-07-27,424.4037780761719,4401.4599609375,19.360000610351562
2021-07-28,424.2297668457031,4400.64013671875,18.309999465942383
2021-07-29,425.9892272949219,4419.14990234375,17.700000762939453
2021-07-30,423.9204406738281,4395.259765625,18.239999771118164
2021-08-02,423.031005859375,4387.16015625,19.459999084472656
2021-08-03,426.4726257324219,4423.14990234375,18.040000915527344
2021-08-04,424.37481689453125,4402.66015625,17.969999313354492
2021-08-05,427.0623474121094,4429.10009765625,17.280000686645508
2021-08-06,427.7679748535156,4436.52001953125,16.149999618530273
2021-08-09,427.41998291015625,4432.35009765625,16.719999313354492
2021-08-10,427.95166015625,4436.75,16.790000915527344
2021-08-11,429.0150451660156,4442.41015625,16.170000076293945
2021-08-12,430.30084228515625,4460.830078125,15.59000015258789
2021-08-13,431.0838623046875,4468.0,15.449999809265137
2021-08-16,432.09893798828125,4479.7099609375,16.1200008392334
2021-08-17,429.2664489746094,4448.080078125,17.90999984741211
2021-08-18,424.568115234375,4400.27001953125,21.56999969482422
2021-08-19,425.2254943847656,4405.7998046875,21.670000076293945
2021-08-20,428.60906982421875,4441.669921875,18.559999465942383
2021-08-23,432.3793029785156,4479.52978515625,17.149999618530273
2021-08-24,433.065673828125,4486.22998046875,17.219999313354492
2021-08-25,433.9743957519531,4496.18994140625,16.790000915527344
2021-08-26,431.41265869140625,4470.0,18.84000015258789
2021-08-27,435.26983642578125,4509.3701171875,16.389999389648438
2021-08-30,437.1839904785156,4528.7900390625,16.190000534057617
2021-08-31,436.5362243652344,4522.68017578125,16.479999542236328
2021-09-01,436.7682189941406,4524.08984375,16.110000610351562
2021-09-02,438.1120300292969,4536.9501953125,16.40999984741211
2021-09-03,438.0057067871094,4535.43017578125,16.40999984741211
2021-09-07,436.4395446777344,4520.02978515625,18.139999389648438
2021-09-08,435.90789794921875,4514.06982421875,17.959999084472656
2021-09-09,434.0421142578125,4493.27978515625,18.799999237060547
2021-09-10,430.6199035644531,4458.580078125,20.950000762939453
2021-09-13,431.7218933105469,4468.72998046875,19.3700008392334
2021-09-14,429.3921203613281,4443.0498046875,19.459999084472656
2021-09-15,432.9787292480469,4480.7001953125,18.18000030517578
2021-09-16,432.29229736328125,4473.75,18.690000534057617
2021-09-17,428.081298828125,4432.990234375,20.809999465942383
2021-09-20,420.9433898925781,4357.72998046875,25.709999084472656
2021-09-21,420.5458068847656,4354.18994140625,24.360000610351562
2021-09-22,424.6481018066406,4395.64013671875,20.8700008392334
2021-09-23,429.8075866699219,4448.97998046875,18.6299991607666
2021-09-24,430.5155944824219,4455.47998046875,17.75
2021-09-27,429.2839050292969,4443.10986328125,18.760000228881836
2021-09-28,420.6330871582031,4352.6298828125,23.25
2021-09-29,421.34100341796875,4359.4599609375,22.559999465942383
2021-09-30,416.1913146972656,4307.5400390625,23.139999389648438
2021-10-01,421.1373596191406,4357.0400390625,21.100000381469727
2021-10-04,415.70635986328125,4300.4599609375,22.959999084472656
2021-10-05,420.0317687988281,4345.72021484375,21.299999237060547
2021-10-06,421.7774658203125,4363.5498046875,21.0
2021-10-07,425.42401123046875,4399.759765625,19.540000915527344
2021-10-08,424.6481018066406,4391.33984375,18.770000457763672
2021-10-11,421.5738220214844,4361.18994140625,20.0
2021-10-12,420.5361022949219,4350.64990234375,19.850000381469727
2021-10-13,422.0490417480469,4363.7998046875,18.639999389648438
2021-10-14,429.1481628417969,4438.259765625,16.860000610351562
2021-10-15,432.4164733886719,4471.3701171875,16.299999237060547
2021-10-18,433.6966247558594,4486.4599609375,16.309999465942383
2021-10-19,437.0425109863281,4519.6298828125,15.699999809265137
2021-10-20,438.75909423828125,4536.18994140625,15.489999771118164
2021-10-21,439.90350341796875,4549.77978515625,15.010000228881836
2021-10-22,439.4477233886719,4544.89990234375,15.430000305175781
2021-10-25,441.8043518066406,4566.47998046875,15.239999771118164
2021-10-26,442.2019958496094,4574.7900390625,15.979999542236328
2021-10-27,440.24298095703125,4551.68017578125,16.979999542236328
2021-10-28,444.4908142089844,4596.419921875,16.530000686645508
2021-10-29,445.3927307128906,4605.3798828125,16.260000228881836
2021-11-01,446.15887451171875,4613.669921875,16.40999984741211
2021-11-02,447.9627685546875,4630.64990234375,16.030000686645508
2021-11-03,450.6977233886719,4660.56982421875,15.100000381469727
2021-11-04,452.8215637207031,4680.06005859375,15.4399995803833
2021-11-05,454.3927001953125,4697.52978515625,16.479999542236328
2021-11-08,454.7806701660156,4701.7001953125,17.219999313354492
2021-11-09,453.27740478515625,4685.25,17.780000686645508
2021-11-10,449.630859375,4646.7099609375,18.729999542236328
2021-11-11,449.7763366699219,4649.27001953125,17.65999984741211
2021-11-12,453.17071533203125,4682.85009765625,16.290000915527344
2021-11-15,453.325927734375,4682.7998046875,16.489999771118164
2021-11-16,455.12005615234375,4700.89990234375,16.3700008392334
2021-11-17,454.0145263671875,4688.669921875,17.110000610351562
2021-11-18,455.5564880371094,4704.5400390625,17.59000015258789
2021-11-19,454.74188232421875,4697.9599609375,17.90999984741211
2021-11-22,453.461669921875,4682.93994140625,19.170000076293945
2021-11-23,454.06298828125,4690.7001953125,19.3799991607666
2021-11-24,455.27520751953125,4701.4599609375,18.579999923706055
2021-11-26,445.12115478515625,4594.6201171875,28.6200008392334
2021-11-29,450.5813293457031,4655.27001953125,22.959999084472656
2021-11-30,441.8140563964844,4567.0,27.190000534057617
2021-12-01,436.90673828125,4513.0400390625,31.1200008392334
2021-12-02,443.59857177734375,4577.10009765625,27.950000762939453
2021-12-03,439.7386169433594,4538.43017578125,30.670000076293945
2021-12-06,444.94659423828125,4591.669921875,27.18000030517578
2021-12-07,454.1502380371094,4686.75,21.889999389648438
2021-12-08,455.352783203125,4701.2099609375,19.899999618530273
2021-12-09,452.27850341796875,4667.4501953125,21.579999923706055
2021-12-10,456.5360107421875,4712.02001953125,18.690000534057617
2021-12-13,452.4918518066406,4668.97021484375,20.309999465942383
2021-12-14,449.3786926269531,4634.08984375,21.889999389648438
2021-12-15,456.40020751953125,4709.85009765625,19.290000915527344
2021-12-16,452.3755187988281,4668.669921875,20.56999969482422
2021-12-17,447.5608825683594,4620.64013671875,21.56999969482422
2021-12-20,442.8017883300781,4568.02001953125,22.8700008392334
2021-12-21,450.66552734375,4649.22998046875,21.010000228881836
2021-12-22,455.1715393066406,4696.56005859375,18.6299991607666
2021-12-23,458.0036926269531,4725.7900390625,17.959999084472656
2021-12-27,464.48541259765625,4791.18994140625,17.68000030517578
2021-12-28,464.1058349609375,4786.35009765625,17.540000915527344
2021-12-29,464.6994934082031,4793.06005859375,16.950000762939453
2021-12-30,463.4148864746094,4778.72998046875,17.329999923706055
2021-12-31,462.2469787597656,4766.18017578125,17.219999313354492
2022-01-03,464.92340087890625,4796.56005859375,16.600000381469727
2022-01-04,464.76763916015625,4793.5400390625,16.90999984741211
2022-01-05,455.8431396484375,4700.580078125,19.729999542236328
2022-01-06,455.4148864746094,4696.0498046875,19.610000610351562
2022-01-07,453.6144104003906,4677.02978515625,18.760000228881836
2022-01-10,453.0499267578125,4670.2900390625,19.399999618530273
2022-01-11,457.17645263671875,4713.06982421875,18.40999984741211
2022-01-12,458.4124755859375,4726.35009765625,17.6200008392334
2022-01-13,452.0961608886719,4659.02978515625,20.309999465942383
2022-01-14,452.2811279296875,4662.85009765625,19.190000534057617
2022-01-18,444.2713928222656,4577.10986328125,22.790000915527344
2022-01-19,439.65826416015625,4532.759765625,23.850000381469727
2022-01-20,434.79205322265625,4482.72998046875,25.59000015258789
2022-01-21,426.2568054199219,4397.93994140625,28.850000381469727
2022-01-24,428.0670166015625,4410.1298828125,29.899999618530273
2022-01-25,422.84075927734375,4356.4501953125,31.15999984741211
2022-01-26,421.77996826171875,4349.93017578125,31.959999084472656
2022-01-27,419.69720458984375,4326.509765625,30.489999771118164
2022-01-28,430.1205749511719,4431.85009765625,27.65999984741211
2022-01-31,437.8675231933594,4515.5498046875,24.829999923706055
2022-02-01,440.82611083984375,4546.5400390625,21.959999084472656
2022-02-02,445.10833740234375,4589.3798828125,22.09000015258789
2022-02-03,434.6460876464844,4477.43994140625,24.350000381469727
2022-02-04,436.68988037109375,4500.52978515625,23.219999313354492
2022-02-07,435.2884216308594,4483.8701171875,22.860000610351562
2022-02-08,438.86993408203125,4521.5400390625,21.440000534057617
2022-02-09,445.2933044433594,4587.18017578125,19.959999084472656
2022-02-10,437.2933044433594,4504.080078125,23.90999984741211
2022-02-11,428.6704406738281,4418.64013671875,27.360000610351562
2022-02-14,427.2689514160156,4401.669921875,28.329999923706055
2022-02-15,434.15948486328125,4471.06982421875,25.700000762939453
2022-02-16,434.6460876464844,4475.009765625,24.290000915527344
2022-02-17,425.3614196777344,4380.259765625,28.110000610351562
2022-02-18,422.607177734375,4348.8701171875,27.75
2022-02-22,418.0719299316406,4304.759765625,28.809999465942383
2022-02-23,410.6559143066406,4225.5,31.020000457763672
2022-02-24,416.8359069824219,4288.7001953125,30.31999969482422
2022-02-25,426.0329284667969,4384.64990234375,27.59000015258789
2022-02-28,424.94293212890625,4373.93994140625,30.149999618530273
2022-03-01,418.470947265625,4306.259765625,33.31999969482422
2022-03-02,426.16925048828125,4386.5400390625,30.739999771118164
2022-03-03,424.0475769042969,4363.490234375,30.479999542236328
2022-03-04,420.6023254394531,4328.8701171875,31.979999542236328
2022-03-07,408.20330810546875,4201.08984375,36.45000076293945
2022-03-08,405.10845947265625,4170.7001953125,35.130001068115234
2022-03-09,415.96978759765625,4277.8798828125,32.45000076293945
2022-03-10,414.0914001464844,4259.52001953125,30.229999542236328
2022-03-11,408.8262023925781,4204.31005859375,30.75
2022-03-14,405.83837890625,4173.10986328125,31.770000457763672
2022-03-15,414.762939453125,4262.4501953125,29.829999923706055
2022-03-16,423.9599914550781,4357.85986328125,26.670000076293945
2022-03-17,429.2641296386719,4411.669921875,25.670000076293945
2022-03-18,433.96575927734375,4463.1201171875,23.8700008392334
2022-03-21,433.8388671875,4461.18017578125,23.530000686645508
2022-03-22,438.9153747558594,4511.60986328125,22.940000534057617
2022-03-23,433.2628173828125,4456.240234375,23.56999969482422
2022-03-24,439.7939758300781,4520.16015625,21.670000076293945
2022-03-25,441.9417724609375,4543.06005859375,20.809999465942383
2022-03-28,445.0852966308594,4575.52001953125,19.6299991607666
2022-03-29,450.5914001464844,4631.60009765625,18.899999618530273
2022-03-30,447.8090515136719,4602.4501953125,19.329999923706055
2022-03-31,440.9167175292969,4530.41015625,20.559999465942383
2022-04-01,442.1663513183594,4545.85986328125,19.6299991607666
2022-04-04,445.9541931152344,4582.64013671875,18.56999969482422
2022-04-05,440.3211975097656,4525.1201171875,21.030000686645508
2022-04-06,435.91827392578125,4481.14990234375,22.100000381469727
2022-04-07,438.1148681640625,4500.2099609375,21.549999237060547
2022-04-08,436.943359375,4488.27978515625,21.15999984741211
2022-04-11,429.4750061035156,4412.52978515625,24.3700008392334
2022-04-12,427.8836669921875,4397.4501953125,24.260000228881836
2022-04-13,432.78448486328125,4446.58984375,21.81999969482422
2022-04-14,427.3955383300781,4392.58984375,22.700000762939453
2022-04-18,427.5712890625,4391.68994140625,22.170000076293945
2022-04-19,434.473388671875,4462.2099609375,21.3700008392334
2022-04-20,434.1512145996094,4459.4501953125,20.31999969482422
2022-04-21,427.65911865234375,4393.66015625,22.68000030517578
2022-04-22,415.9245300292969,4271.77978515625,28.209999084472656
2022-04-25,418.3359069824219,4296.1201171875,27.020000457763672
2022-04-26,406.22052001953125,4175.2001953125,33.52000045776367
2022-04-27,407.36273193359375,4183.9599609375,31.600000381469727
2022-04-28,417.65252685546875,4287.5,29.989999771118164
2022-04-29,402.2178649902344,4131.93017578125,33.400001525878906
2022-05-02,404.6390075683594,4155.3798828125,32.34000015258789
2022-05-03,406.493896484375,4175.47998046875,29.25
2022-05-04,418.8728332519531,4300.169921875,25.420000076293945
2022-05-05,403.98492431640625,4146.8701171875,31.200000762939453
2022-05-06,401.57354736328125,4123.33984375,30.190000534057617
2022-05-09,388.7162780761719,3991.239990234375,34.75
2022-05-10,389.6144104003906,4001.050048828125,32.9900016784668
2022-05-11,383.4249267578125,3935.179931640625,32.560001373291016
2022-05-12,383.0246887207031,3930.080078125,31.770000457763672
2022-05-13,392.18194580078125,4023.889892578125,28.8700008392334
2022-05-16,390.5906982421875,4008.010009765625,27.469999313354492
2022-05-17,398.625244140625,4088.85009765625,26.100000381469727
2022-05-18,382.5560302734375,3923.679931640625,30.959999084472656
2022-05-19,380.2130126953125,3900.7900390625,29.350000381469727
2022-05-20,380.3790283203125,3901.360107421875,29.43000030517578
2022-05-23,387.4959411621094,3973.75,28.479999542236328
2022-05-24,384.53790283203125,3941.47998046875,29.450000762939453
2022-05-25,387.93524169921875,3978.72998046875,28.3700008392334
2022-05-26,395.68670654296875,4057.840087890625,27.5
2022-05-27,405.4004821777344,4158.240234375,25.719999313354492
2022-05-31,403.12579345703125,4132.14990234375,26.190000534057617
2022-06-01,399.8651123046875,4101.22998046875,25.690000534057617
2022-06-02,407.47991943359375,4176.81982421875,24.719999313354492
2022-06-03,400.7925109863281,4108.5400390625,24.790000915527344
2022-06-06,402.01287841796875,4121.43017578125,25.06999969482422
2022-06-07,405.8690490722656,4160.68017578125,24.020000457763672
2022-06-08,401.4563903808594,4115.77001953125,23.959999084472656
2022-06-09,391.90863037109375,4017.820068359375,26.09000015258789
2022-06-10,380.54498291015625,3900.860107421875,27.75
2022-06-13,366.0964050292969,3749.6298828125,34.02000045776367
2022-06-14,364.9931945800781,3735.47998046875,32.689998626708984
2022-06-15,370.1966857910156,3789.989990234375,29.6200008392334
2022-06-16,357.9446105957031,3666.77001953125,32.95000076293945
2022-06-17,358.71624755859375,3674.840087890625,31.1299991607666
2022-06-21,367.7464294433594,3764.7900390625,30.190000534057617
2022-06-22,367.0797119140625,3759.889892578125,28.950000762939453
2022-06-23,370.6780700683594,3795.72998046875,29.049999237060547
2022-06-24,382.46331787109375,3911.739990234375,27.229999542236328
2022-06-27,381.00244140625,3900.110107421875,26.950000762939453
2022-06-28,373.21746826171875,3821.550048828125,28.360000610351562
2022-06-29,372.91351318359375,3818.830078125,28.15999984741211
2022-06-30,369.88385009765625,3785.3798828125,28.709999084472656
2022-07-01,373.79595947265625,3825.330078125,26.700000762939453
2022-07-05,374.5019226074219,3831.389892578125,27.540000915527344
2022-07-06,375.7666931152344,3845.080078125,26.729999542236328
2022-07-07,381.3946228027344,3902.6201171875,26.079999923706055
2022-07-08,381.08087158203125,3899.3798828125,24.639999389648438
2022-07-11,376.72760009765625,3854.429931640625,26.170000076293945
2022-07-12,373.3939514160156,3818.800048828125,27.290000915527344
2022-07-13,371.4330139160156,3801.780029296875,26.81999969482422
2022-07-14,370.5309753417969,3790.3798828125,26.399999618530273
2022-07-15,377.6100158691406,3863.159912109375,24.229999542236328
2022-07-18,374.4920959472656,3830.85009765625,25.299999237060547
2022-07-19,384.610595703125,3936.68994140625,24.5
2022-07-20,387.061767578125,3959.89990234375,23.8799991607666
2022-07-21,391.0032958984375,3998.949951171875,23.110000610351562
2022-07-22,387.3755187988281,3961.6298828125,23.030000686645508
2022-07-25,387.84613037109375,3966.840087890625,23.360000610351562
2022-07-26,383.2575378417969,3921.050048828125,24.690000534057617
2022-07-27,393.2093505859375,4023.610107421875,23.239999771118164
2022-07-28,398.14111328125,4072.429931640625,22.329999923706055
2022-07-29,403.94549560546875,4130.2900390625,21.329999923706055
2022-08-01,402.7493591308594,4118.6298828125,22.84000015258789
2022-08-02,400.09228515625,4091.18994140625,23.93000030517578
2022-08-03,406.3575134277344,4155.169921875,21.950000762939453
2022-08-04,406.08294677734375,4151.93994140625,21.440000534057617
2022-08-05,405.3966369628906,4145.18994140625,21.149999618530273
2022-08-08,404.926025390625,4140.06005859375,21.290000915527344
2022-08-09,403.31805419921875,4122.47021484375,21.770000457763672
2022-08-10,411.7893371582031,4210.240234375,19.739999771118164
2022-08-11,411.7893371582031,4207.27001953125,20.200000762939453
2022-08-12,418.7605285644531,4280.14990234375,19.530000686645508
2022-08-15,420.48614501953125,4297.14013671875,19.950000762939453
2022-08-16,421.3097229003906,4305.2001953125,19.690000534057617
2022-08-17,418.3193054199219,4274.0400390625,19.899999618530273
2022-08-18,419.53509521484375,4283.740234375,19.559999465942383
2022-08-19,413.89739990234375,4228.47998046875,20.600000381469727
2022-08-22,405.2789611816406,4137.990234375,23.799999237060547
2022-08-23,404.29852294921875,4128.72998046875,24.110000610351562
2022-08-24,405.5927429199219,4140.77001953125,22.81999969482422
2022-08-25,411.3187255859375,4199.1201171875,21.780000686645508
2022-08-26,397.39593505859375,4057.659912109375,25.559999465942383
2022-08-29,394.7682800292969,4030.610107421875,26.209999084472656
2022-08-30,390.4346008300781,3986.159912109375,26.209999084472656
2022-08-31,387.4637451171875,3955.0,25.8700008392334
2022-09-01,388.6795654296875,3966.85009765625,25.559999465942383
2022-09-02,384.5812072753906,3924.260009765625,25.469999313354492
2022-09-06,383.13006591796875,3908.18994140625,26.90999984741211
2022-09-07,390.0129699707031,3979.8701171875,24.639999389648438
2022-09-08,392.562255859375,4006.179931640625,23.610000610351562
2022-09-09,398.6607971191406,4067.360107421875,22.790000915527344
2022-09-12,402.9454345703125,4110.41015625,23.8700008392334
2022-09-13,385.42437744140625,3932.68994140625,27.270000457763672
2022-09-14,386.8951110839844,3946.010009765625,26.15999984741211
2022-09-15,382.5025939941406,3901.35009765625,26.270000457763672
2022-09-16,379.5845031738281,3873.330078125,26.299999237060547
2022-09-19,382.52813720703125,3899.889892578125,25.760000228881836
2022-09-20,378.13726806640625,3855.929931640625,27.15999984741211
2022-09-21,371.5411071777344,3789.929931640625,27.989999771118164
2022-09-22,368.4202575683594,3757.989990234375,27.350000381469727
2022-09-23,362.2474365234375,3693.22998046875,29.920000076293945
2022-09-26,358.6637878417969,3655.0400390625,32.2599983215332
2022-09-27,357.7482604980469,3647.2900390625,32.599998474121094
2022-09-28,364.78741455078125,3719.0400390625,30.18000030517578
2022-09-29,357.1673889160156,3640.469970703125,31.84000015258789
2022-09-30,351.64434814453125,3585.6201171875,31.6200008392334
2022-10-03,360.92816162109375,3678.429931640625,30.100000381469727
2022-10-04,372.11212158203125,3790.929931640625,29.06999969482422
2022-10-05,371.2457580566406,3783.280029296875,28.549999237060547
2022-10-06,367.41607666015625,3744.52001953125,30.520000457763672
2022-10-07,357.1673889160156,3639.659912109375,31.360000610351562
2022-10-10,354.4402770996094,3612.389892578125,32.45000076293945
2022-10-11,352.1956787109375,3588.840087890625,33.630001068115234
2022-10-12,351.0339050292969,3577.030029296875,33.56999969482422
2022-10-13,360.298095703125,3669.909912109375,31.940000534057617
2022-10-14,352.0873718261719,3583.070068359375,32.02000045776367
2022-10-17,361.1349792480469,3677.949951171875,31.3700008392334
2022-10-18,365.37811279296875,3719.97998046875,30.5
2022-10-19,362.7889099121094,3695.159912109375,30.760000228881836
2022-10-20,359.7467956542969,3665.780029296875,29.979999542236328
2022-10-21,368.48919677734375,3752.75,29.690000534057617
2022-10-24,372.9981994628906,3797.340087890625,29.850000381469727
2022-10-25,378.95440673828125,3859.110107421875,28.459999084472656
2022-10-26,376.099365234375,3830.60009765625,27.280000686645508
2022-10-27,374.0909729003906,3807.300048828125,27.389999389648438
2022-10-28,382.9908447265625,3901.06005859375,25.75
2022-10-31,380.2243957519531,3871.97998046875,25.8799991607666
2022-11-01,378.5605773925781,3856.10009765625,25.809999465942383
2022-11-02,369.0602111816406,3759.68994140625,25.860000610351562
2022-11-03,365.260009765625,3719.889892578125,25.299999237060547
2022-11-04,370.5172424316406,3770.550048828125,24.549999237060547
2022-11-07,374.06146240234375,3806.800048828125,24.350000381469727
2022-11-08,376.07965087890625,3828.110107421875,25.540000915527344
2022-11-09,368.3316650390625,3748.570068359375,26.09000015258789
2022-11-10,388.572998046875,3956.3701171875,23.530000686645508
2022-11-11,392.33380126953125,3992.929931640625,22.520000457763672
2022-11-14,388.9963073730469,3957.25,23.729999542236328
2022-11-15,392.3140869140625,3991.72998046875,24.540000915527344
2022-11-16,389.32122802734375,3958.7900390625,24.110000610351562
2022-11-17,388.12994384765625,3946.56005859375,23.93000030517578
2022-11-18,389.8922424316406,3965.340087890625,23.1200008392334
2022-11-21,388.47454833984375,3949.93994140625,22.360000610351562
2022-11-22,393.7022705078125,4003.580078125,21.290000915527344
2022-11-23,396.1831970214844,4027.260009765625,20.350000381469727
2022-11-25,396.0945739746094,4026.1201171875,20.5
2022-11-28,389.7740478515625,3963.93994140625,22.209999084472656
2022-11-29,389.1046447753906,3957.6298828125,21.889999389648438
2022-11-30,401.3616638183594,4080.110107421875,20.579999923706055
2022-12-01,401.0663146972656,4076.570068359375,19.84000015258789
2022-12-02,400.6036376953125,4071.699951171875,19.059999465942383
2022-12-05,393.3970642089844,3998.840087890625,20.75
2022-12-06,387.7262878417969,3941.260009765625,22.170000076293945
2022-12-07,387.0666809082031,3933.919921875,22.68000030517578
2022-12-08,390.0989685058594,3963.510009765625,22.290000915527344
2022-12-09,387.18487548828125,3934.3798828125,22.829999923706055
2022-12-12,392.7669677734375,3990.56005859375,25.0
2022-12-13,395.7402038574219,4019.64990234375,22.549999237060547
2022-12-14,393.21002197265625,3995.320068359375,21.139999389648438
2022-12-15,383.5914306640625,3895.75,22.829999923706055
2022-12-16,379.06268310546875,3852.360107421875,22.6200008392334
2022-12-19,375.8483581542969,3817.659912109375,22.420000076293945
2022-12-20,376.3626708984375,3821.6201171875,21.479999542236328
2022-12-21,381.9902038574219,3878.43994140625,20.06999969482422
2022-12-22,376.5406799316406,3822.389892578125,21.969999313354492
2022-12-23,378.7066650390625,3844.820068359375,20.8700008392334
2022-12-27,377.2132263183594,3829.25,21.649999618530273
2022-12-28,372.5252380371094,3783.219970703125,22.139999389648438
2022-12-29,379.2308349609375,3849.280029296875,21.440000534057617
2022-12-30,378.23187255859375,3839.5,21.670000076293945
2023-01-03,376.63958740234375,3824.139892578125,22.899999618530273
2023-01-04,379.5473327636719,3852.969970703125,22.010000228881836
2023-01-05,375.21539306640625,3808.10009765625,22.459999084472656
2023-01-06,383.81988525390625,3895.080078125,21.1299991607666
2023-01-09,383.602294921875,3892.090087890625,21.969999313354492
2023-01-10,386.2924499511719,3919.25,20.579999923706055
2023-01-11,391.17822265625,3969.610107421875,21.09000015258789
2023-01-12,392.6023864746094,3983.169921875,18.829999923706055
2023-01-13,394.12548828125,3999.090087890625,18.350000381469727
2023-01-17,393.40350341796875,3990.969970703125,19.360000610351562
2023-01-18,387.1924743652344,3928.860107421875,20.34000015258789
2023-01-19,384.373779296875,3898.85009765625,20.520000457763672
2023-01-20,391.5342712402344,3972.610107421875,19.850000381469727
2023-01-23,396.2321472167969,4019.81005859375,19.809999465942383
2023-01-24,395.80682373046875,4016.949951171875,19.200000762939453
2023-01-25,395.9552001953125,4016.219970703125,19.079999923706055
2023-01-26,400.3069152832031,4060.429931640625,18.729999542236328
2023-01-27,401.2266845703125,4070.56005859375,18.510000228881836
2023-01-30,396.1925354003906,4017.77001953125,19.940000534057617
2023-01-31,402.0179138183594,4076.60009765625,19.399999618530273
2023-02-01,406.29046630859375,4119.2099609375,17.8700008392334
2023-02-02,412.204833984375,4179.759765625,18.729999542236328
2023-02-03,407.823486328125,4136.47998046875,18.329999923706055
2023-02-06,405.33111572265625,4111.080078125,19.43000030517578
2023-02-07,410.6322937011719,4164.0,18.65999984741211
2023-02-08,406.1421203613281,4117.85986328125,19.6299991607666
2023-02-09,402.6211853027344,4081.5,20.709999084472656
2023-02-10,403.560791015625,4090.4599609375,20.530000686645508
2023-02-13,408.2981872558594,4137.2900390625,20.34000015258789
2023-02-14,408.1103210449219,4136.1298828125,18.90999984741211
2023-02-15,409.43560791015625,4147.60009765625,18.229999542236328
2023-02-16,403.7981262207031,4090.409912109375,20.170000076293945
2023-02-17,402.78936767578125,4079.090087890625,20.020000457763672
2023-02-21,394.70904541015625,3997.340087890625,22.8700008392334
2023-02-22,394.1650695800781,3991.050048828125,22.290000915527344
2023-02-23,396.26177978515625,4012.320068359375,21.139999389648438
2023-02-24,392.0287780761719,3970.0400390625,21.670000076293945
2023-02-27,393.36395263671875,3982.239990234375,20.950000762939453
2023-02-28,391.9100646972656,3970.14990234375,20.700000762939453
2023-03-01,390.4067687988281,3951.389892578125,20.579999923706055
2023-03-02,393.44305419921875,3981.35009765625,19.59000015258789
2023-03-03,399.7530212402344,4045.639892578125,18.489999771118164
2023-03-06,400.0299987792969,4048.419921875,18.610000610351562
2023-03-07,393.8980407714844,3986.3701171875,19.59000015258789
2023-03-08,394.5408935546875,3992.010009765625,19.110000610351562
2023-03-09,387.2616882324219,3918.320068359375,22.610000610351562
2023-03-10,381.6737365722656,3861.590087890625,24.799999237060547
2023-03-13,381.1297302246094,3855.760009765625,26.520000457763672
2023-03-14,387.4298400878906,3919.2900390625,23.729999542236328
2023-03-15,385.0067138671875,3891.929931640625,26.139999389648438
2023-03-16,391.7617492675781,3960.280029296875,22.989999771118164
2023-03-17,387.18096923828125,3916.639892578125,25.510000228881836
2023-03-20,390.9039611816406,3951.570068359375,24.149999618530273
2023-03-21,396.0367126464844,4002.8701171875,21.3799991607666
2023-03-22,389.28570556640625,3936.969970703125,22.260000228881836
2023-03-23,390.33807373046875,3948.719970703125,22.610000610351562
2023-03-24,392.8995056152344,3970.989990234375,21.739999771118164
2023-03-27,393.6341552734375,3977.530029296875,20.600000381469727
2023-03-28,392.7505798339844,3971.27001953125,19.969999313354492
2023-03-29,398.4591369628906,4027.81005859375,19.1200008392334
2023-03-30,400.792236328125,4050.830078125,19.020000457763672
2023-03-31,406.4412536621094,4109.31005859375,18.700000762939453
2023-04-03,407.9900207519531,4124.509765625,18.549999237060547
2023-04-04,405.7264709472656,4100.60009765625,19.0
2023-04-05,404.6641540527344,4090.3798828125,19.079999923706055
2023-04-06,406.2427062988281,4105.02001953125,18.399999618530273
2023-04-10,406.65966796875,4109.10986328125,18.969999313354492
2023-04-11,406.76885986328125,4108.93994140625,19.100000381469727
2023-04-12,405.11090087890625,4091.949951171875,19.09000015258789
2023-04-13,410.49188232421875,4146.22021484375,17.799999237060547
2023-04-14,409.4891357421875,4137.64013671875,17.06999969482422
2023-04-17,410.95849609375,4151.31982421875,16.950000762939453
2023-04-18,411.2265319824219,4154.8701171875,16.829999923706055
2023-04-19,411.15704345703125,4154.52001953125,16.459999084472656
2023-04-20,408.913330078125,4129.7900390625,17.170000076293945
2023-04-21,409.23101806640625,4133.52001953125,16.770000457763672
2023-04-24,409.6579284667969,4137.0400390625,16.889999389648438
2023-04-25,403.15509033203125,4071.6298828125,18.760000228881836
2023-04-26,401.44744873046875,4055.989990234375,18.84000015258789
2023-04-27,409.4394836425781,4135.35009765625,17.030000686645508
2023-04-28,412.9341125488281,4169.47998046875,15.779999732971191
2023-05-01,412.5171813964844,4167.8701171875,16.079999923706055
2023-05-02,407.8808288574219,4119.580078125,17.780000686645508
2023-05-03,405.08111572265625,4090.75,18.34000015258789
2023-05-04,402.2119445800781,4061.219970703125,20.09000015258789
2023-05-05,409.6579284667969,4136.25,17.190000534057617
2023-05-08,409.76708984375,4138.1201171875,16.979999542236328
2023-05-09,407.97015380859375,4119.169921875,17.709999084472656
2023-05-10,409.8763427734375,4137.64013671875,16.940000534057617
2023-05-11,409.1614990234375,4130.6201171875,16.93000030517578
2023-05-12,408.6253967285156,4124.080078125,17.030000686645508
2023-05-15,410.03515625,4136.27978515625,17.1200008392334
2023-05-16,407.2950439453125,4109.89990234375,17.989999771118164
2023-05-17,412.23919677734375,4158.77001953125,16.8700008392334
2023-05-18,416.21038818359375,4198.0498046875,16.049999237060547
2023-05-19,415.6047668457031,4191.97998046875,16.809999465942383
2023-05-22,415.7735595703125,4192.6298828125,17.209999084472656
2023-05-23,411.107421875,4145.580078125,18.530000686645508
2023-05-24,408.1289978027344,4115.240234375,20.030000686645508
2023-05-25,411.6633605957031,4151.27978515625,19.139999389648438
2023-05-26,416.9946594238281,4205.4501953125,17.950000762939453
2023-05-30,417.1535339355469,4205.52001953125,17.459999084472656
2023-05-31,414.84033203125,4179.830078125,17.940000534057617
2023-06-01,418.78173828125,4221.02001953125,15.649999618530273
2023-06-02,424.8377990722656,4282.3701171875,14.600000381469727
2023-06-05,424.0237121582031,4273.7900390625,14.729999542236328
2023-06-06,424.9469909667969,4283.85009765625,13.960000038146973
2023-06-07,423.4776306152344,4267.52001953125,13.9399995803833
2023-06-08,426.0390930175781,4293.93017578125,13.649999618530273
2023-06-09,426.8034973144531,4298.85986328125,13.829999923706055
2023-06-12,430.6754150390625,4338.93017578125,15.010000228881836
2023-06-13,433.51483154296875,4369.009765625,14.609999656677246
2023-06-14,434.03106689453125,4372.58984375,13.880000114440918
2023-06-15,439.41204833984375,4425.83984375,14.5
2023-06-16,437.9153137207031,4409.58984375,13.539999961853027
2023-06-20,435.6433410644531,4388.7099609375,13.880000114440918
2023-06-21,433.4112243652344,4365.68994140625,13.199999809265137
2023-06-22,434.9757080078125,4381.89013671875,12.90999984741211
2023-06-23,431.6872863769531,4348.330078125,13.4399995803833
2023-06-26,429.92352294921875,4328.81982421875,14.25
2023-06-27,434.63690185546875,4378.41015625,13.739999771118164
2023-06-28,434.85614013671875,4376.85986328125,13.430000305175781
2023-06-29,436.5700378417969,4396.43994140625,13.539999961853027
2023-06-30,441.7218933105469,4450.3798828125,13.59000015258789
2023-07-03,442.2301025390625,4455.58984375,13.569999694824219
2023-07-05,441.5724182128906,4446.81982421875,14.180000305175781
2023-07-06,438.1146240234375,4411.58984375,15.4399995803833
2023-07-07,437.0085144042969,4398.9501953125,14.829999923706055
2023-07-10,438.1146240234375,4409.52978515625,15.069999694824219
2023-07-11,440.9047546386719,4439.259765625,14.84000015258789
2023-07-12,444.4522399902344,4472.16015625,13.539999961853027
2023-07-13,447.9798278808594,4510.0400390625,13.609999656677246
2023-07-14,447.7008056640625,4505.419921875,13.34000015258789
2023-07-17,449.25531005859375,4522.7900390625,13.479999542236328
2023-07-18,452.5935363769531,4554.97998046875,13.300000190734863
2023-07-19,453.6000061035156,4565.72021484375,13.760000228881836
2023-07-20,450.5906066894531,4534.8701171875,13.989999771118164
2023-07-21,450.5906066894531,4536.33984375,13.600000381469727
2023-07-24,452.603515625,4554.64013671875,13.90999984741211
2023-07-25,453.8391418457031,4567.4599609375,13.859999656677246
2023-07-26,453.9089050292969,4566.75,13.1899995803833
2023-07-27,450.8995056152344,4537.41015625,14.40999984741211
2023-07-28,455.31396484375,4582.22998046875,13.329999923706055
2023-07-31,456.180908203125,4588.9599609375,13.630000114440918
2023-08-01,454.8755187988281,4576.72998046875,13.930000305175781
2023-08-02,448.5478210449219,4513.39013671875,16.09000015258789
2023-08-03,447.2623596191406,4501.89013671875,15.920000076293945
2023-08-04,445.2394714355469,4478.02978515625,17.100000381469727
2023-08-07,449.1257629394531,4518.43994140625,15.770000457763672
2023-08-08,447.17266845703125,4499.3798828125,15.989999771118164
2023-08-09,444.1832275390625,4467.7099609375,15.960000038146973
2023-08-10,444.3426513671875,4468.830078125,15.850000381469727
2023-08-11,444.08355712890625,4464.0498046875,14.84000015258789
2023-08-14,446.534912109375,4489.72021484375,14.819999694824219
2023-08-15,441.3332824707031,4437.85986328125,16.459999084472656
2023-08-16,438.0946960449219,4404.330078125,16.780000686645508
2023-08-17,434.7564697265625,4370.35986328125,17.889999389648438
2023-08-18,434.9657287597656,4369.7099609375,17.299999237060547
2023-08-21,437.7957458496094,4399.77001953125,17.1299991607666
2023-08-22,436.60992431640625,4387.5498046875,16.969999313354492
2023-08-23,441.4727783203125,4436.009765625,15.979999542236328
2023-08-24,435.3543701171875,4376.31005859375,17.200000762939453
2023-08-25,438.42352294921875,4405.7099609375,15.680000305175781
2023-08-28,441.2037353515625,4433.31005859375,15.079999923706055
2023-08-29,447.58123779296875,4497.6298828125,14.449999809265137
2023-08-30,449.42474365234375,4514.8701171875,13.880000114440918
2023-08-31,448.7670593261719,4507.66015625,13.569999694824219
2023-09-01,449.6040954589844,4515.77001953125,13.09000015258789
2023-09-05,447.66094970703125,4496.830078125,14.010000228881836
2023-09-06,444.65155029296875,4465.47998046875,14.449999809265137
2023-09-07,443.286376953125,4451.14013671875,14.399999618530273
2023-09-08,443.9540100097656,4457.490234375,13.84000015258789
2023-09-11,446.8737487792969,4487.4599609375,13.800000190734863
2023-09-12,444.42236328125,4461.89990234375,14.229999542236328
2023-09-13,444.9405517578125,4467.43994140625,13.479999542236328
2023-09-14,448.7770080566406,4505.10009765625,12.819999694824219
2023-09-15,443.3699951171875,4450.31982421875,13.789999961853027
2023-09-18,443.6300048828125,4453.52978515625,14.0
2023-09-19,442.7099914550781,4443.9501953125,14.109999656677246
2023-09-20,438.6400146484375,4402.2001953125,15.140000343322754
2023-09-21,431.3900146484375,4330.0,17.540000915527344
2023-09-22,430.4200134277344,4320.06005859375,17.200000762939453
2023-09-25,432.2300109863281,4337.43994140625,16.899999618530273
2023-09-26,425.8800048828125,4273.52978515625,18.940000534057617
2023-09-27,426.04998779296875,4274.509765625,18.219999313354492
2023-09-28,428.5199890136719,4299.7001953125,17.34000015258789
2023-09-29,427.4800109863281,4288.0498046875,17.520000457763672
2023-10-02,427.30999755859375,4288.39013671875,17.610000610351562
2023-10-03,421.5899963378906,4229.4501953125,19.780000686645508
2023-10-04,424.6600036621094,4263.75,18.579999923706055
2023-10-05,424.5,4258.18994140625,18.489999771118164
2023-10-06,429.5400085449219,4308.5,17.450000762939453
2023-10-09,432.2900085449219,4335.66015625,17.700000762939453
2023-10-10,434.5400085449219,4358.240234375,17.030000686645508
2023-10-11,436.32000732421875,4376.9501953125,16.09000015258789
2023-10-12,433.6600036621094,4349.60986328125,16.690000534057617
2023-10-13,431.5,4327.77978515625,19.31999969482422
2023-10-16,436.0400085449219,4373.6298828125,17.209999084472656
2023-10-17,436.0199890136719,4373.2001953125,17.8799991607666
