Datetime,Open,High,Low,Close,Volume,SMA,short_ema,long_ema,MACD,Signal_Line,Buy_Signal,Sell_Signal
2023-09-05,89100.0,90700.0,89100.0,90100.0,2013202,,90100.0,90100.0,0.0,0.0,False,False
2023-09-06,90200.0,90200.0,89700.0,90200.0,2057603,,90115.38461538461,90107.4074074074,7.977207977208309,1.5954415954416619,False,False
2023-09-07,90000.0,90800.0,89500.0,89500.0,1958302,,90020.71005917159,90062.41426611796,-41.70420694637869,-7.064488112922408,False,False
2023-09-08,89500.0,89500.0,89100.0,89500.0,1381905,,89940.60081929903,90020.75395010924,-80.15313081021304,-21.682216652380536,False,False
2023-09-11,89600.0,90000.0,88000.0,88500.0,2592500,,89718.96992402224,89908.10550936041,-189.1355853381683,-55.1728903895381,False,False
2023-09-12,89000.0,90000.0,88900.0,89900.0,1612100,,89746.8207049419,89907.50510125964,-160.684396317738,-76.27519157517807,False,False
2023-09-13,90000.0,90000.0,88900.0,89100.0,1675000,,89647.30982725853,89847.68990857374,-200.38008131520473,-101.0961695231834,False,False
2023-09-14,89000.0,89500.0,88100.0,89100.0,1552600,,89563.1083153726,89792.30547090161,-229.19715552900743,-126.7163667243482,False,False
2023-09-15,88900.0,89800.0,88600.0,89800.0,2235400,,89599.55318993067,89792.87543602001,-193.32224608934484,-140.03754259734754,False,False
2023-09-18,89500.0,89700.0,88300.0,88800.0,789102,,89476.54500686441,89719.32910742595,-242.7841005615337,-160.5868541901848,False,False
2023-09-19,88800.0,89200.0,86000.0,88100.0,1210203,,89264.7688519622,89599.37880317218,-334.6099512099754,-195.39147359414295,False,False
2023-09-20,88100.0,88400.0,86400.0,88000.0,1057027,,89070.18902858341,89480.9062992335,-410.717270650086,-238.45663300533158,False,False
2023-09-21,88000.0,88000.0,86800.0,87000.0,1359910,,88751.69840880136,89297.13546225322,-545.4370534518675,-299.8527170946388,False,False
2023-09-22,86400.0,89500.0,86000.0,89300.0,2679610,,88836.052499755,89297.34765023447,-461.29515047947643,-332.14120377160634,False,False
2023-09-25,89000.0,89500.0,88300.0,89300.0,2303421,,88907.42903825422,89297.54412058748,-390.1150823332573,-343.73597948393655,False,False
2023-09-26,89200.0,89400.0,86900.0,87000.0,1663215,,88613.97841698435,89127.35566721062,-513.3772502262727,-377.6642336324038,False,False
2023-09-27,87600.0,89000.0,87000.0,87800.0,1368902,,88488.75096821753,89029.03302519502,-540.2820569774922,-410.18779830142154,False,False
2023-09-28,87200.0,88300.0,86600.0,88000.0,1065102,,88413.55851156867,88952.80835666205,-539.2498450933781,-436.0002076598129,False,False
2023-09-29,88300.0,88300.0,87100.0,87500.0,613316,,88273.01104825042,88845.19292283522,-572.1818745847995,-463.2365410448102,False,False
2023-10-02,87100.0,87200.0,86500.0,86500.0,765716,88650.0,88000.24011775036,88671.47492855112,-671.2348108007573,-504.8361949959997,False,True
2023-10-03,86500.0,86700.0,85800.0,86300.0,1066600,88460.0,87738.66471501953,88495.81011902883,-757.145404009294,-555.2980367986586,False,True
2023-10-04,86300.0,86300.0,85300.0,86300.0,922800,88265.0,87517.33168193961,88333.15751761929,-815.8258356796723,-607.4035965748614,False,True
2023-10-05,86000.0,86000.0,84500.0,84500.0,1014000,88015.0,87053.12680779505,88049.21992372155,-996.0931159265019,-685.1415004451895,False,True
2023-10-06,84500.0,85400.0,83500.0,85400.0,800900,87810.0,86798.7996065958,87852.98141085329,-1054.1818042574887,-758.9495612076494,False,True
2023-10-09,85400.0,85400.0,84000.0,84600.0,1212100,87615.0,86460.5227440426,87612.01982486417,-1151.497080821573,-837.4590651304342,False,True
2023-10-10,84600.0,86200.0,84600.0,86100.0,802101,87425.0,86405.05770649758,87500.01835635572,-1094.9606498581416,-888.9593820759757,False,True
2023-10-11,86200.0,86500.0,85700.0,86500.0,815401,87295.0,86419.66421319026,87425.94292255159,-1006.2787093613297,-912.4232475330465,False,True
2023-10-12,86900.0,86900.0,85500.0,86000.0,882100,87140.0,86355.10048808408,87320.3175208811,-965.2170327970234,-922.982004585842,False,True
2023-10-13,86000.0,86600.0,85500.0,86600.0,788100,86980.0,86392.77733607114,87266.9606674825,-874.183331411361,-913.2222699509458,False,False
2023-10-16,85600.0,86600.0,85600.0,86100.0,551300,86845.0,86347.73466898328,87180.51913655788,-832.7844675746019,-897.134709475677,False,False
2023-10-17,86100.0,86500.0,85500.0,85900.0,488400,86735.0,86278.85241221661,87085.66586718323,-806.8134549666138,-879.0704585738645,False,False
2023-10-18,85500.0,86000.0,85000.0,85900.0,1266400,86630.0,86220.56742572175,86997.83876591039,-777.2713401886431,-858.7106348968202,False,False
2023-10-19,85500.0,86000.0,84100.0,84500.0,1408600,86505.0,85955.86474484147,86812.81367213925,-856.9489272977808,-858.3582933770124,False,False
2023-10-20,83500.0,85300.0,82700.0,84800.0,938400,86280.0,85778.03939948125,86663.7163630919,-885.6769636106474,-863.8220274237394,False,True
2023-10-23,84500.0,84500.0,82500.0,84500.0,1130600,86040.0,85581.4179534072,86503.44107693694,-922.0231235297397,-875.4622466449396,False,True
2023-10-24,84500.0,86500.0,83900.0,86000.0,994000,85990.0,85645.81519134456,86466.14914531198,-820.3339539674198,-864.4365881094357,True,False
2023-10-25,85100.0,85800.0,84600.0,85800.0,924100,85890.0,85669.53593113771,86416.80476417777,-747.268833040056,-841.0030370955599,False,False
2023-10-26,85000.0,86000.0,83500.0,84500.0,1520300,85715.0,85489.6073263473,86274.81922609052,-785.2118997432262,-829.8448096250931,False,False
2023-10-27,84600.0,85000.0,83800.0,85000.0,911400,85590.0,85414.28312229387,86180.38817230603,-766.1050500121637,-817.0968577025074,False,False
2023-10-30,83500.0,86000.0,83500.0,85900.0,618900,85560.0,85489.00879578711,86159.61867806115,-670.6098822740314,-787.7994626168122,True,False
2023-10-31,85900.0,86900.0,84900.0,86800.0,1438300,85585.0,85690.6997502814,86207.05433153811,-516.3545812567027,-733.5104863447904,True,False
2023-11-01,86800.0,87800.0,86100.0,87800.0,1550100,85660.0,86015.20748100734,86325.05030697973,-309.8428259723878,-648.77695427031,True,False
2023-11-02,88000.0,89000.0,86600.0,89000.0,1114500,85885.0,86474.40633008313,86523.19472868493,-48.78839860179869,-528.7792431366078,True,False
2023-11-03,89000.0,89400.0,88100.0,88900.0,1157600,86060.0,86847.57458699342,86699.25437841198,148.32020858144097,-393.35935279299804,True,False
2023-11-06,88900.0,89800.0,88500.0,89500.0,833800,86305.0,87255.64003514827,86906.71701704813,348.9230181001476,-244.9028786143689,True,False
2023-11-07,89000.0,89300.0,88300.0,88300.0,518900,86415.0,87416.31079897162,87009.92316393346,406.38763503816153,-114.6447758838628,True,False
2023-11-08,88000.0,89700.0,87900.0,89500.0,1329300,86565.0,87736.8783683606,87194.3732999384,542.5050684222078,16.78519297735133,True,False
2023-11-09,89500.0,89500.0,87900.0,87900.0,2291800,86660.0,87761.97400399743,87246.6419443874,515.3320596100239,116.49456630388585,True,False
2023-11-10,87100.0,87500.0,86000.0,86000.0,1411000,86630.0,87490.90108030551,87154.298096655,336.6029836505186,160.5162497732124,False,False
2023-11-13,86000.0,86100.0,85400.0,85500.0,3242786,86600.0,87184.60860641235,87031.75749690276,152.85110950958915,158.98322172048773,False,True
2023-11-14,86000.0,86500.0,85400.0,86000.0,1086500,86605.0,87002.36112850276,86955.3310156507,47.03011285205139,136.59259994680048,False,True
2023-11-15,86500.0,87700.0,86500.0,87700.0,4172800,86695.0,87109.69018565617,87010.49168115806,99.19850449811202,129.1137808570628,False,False
2023-11-16,87000.0,88000.0,86700.0,88000.0,1343800,86870.0,87246.66092632446,87083.78859366488,162.87233265957911,135.86549121756607,True,False
2023-11-17,87800.0,87900.0,85500.0,85600.0,1693000,86910.0,86993.32847612069,86973.8783274675,19.450148653195356,112.58242270469194,False,True
2023-11-20,85600.0,87000.0,85000.0,86100.0,1157400,86990.0,86855.89332594827,86909.14659950694,-53.253273558671935,79.41528345201917,False,True
2023-11-21,86100.0,86700.0,85800.0,86600.0,1256400,87020.0,86816.52512195623,86886.24685139532,-69.72172943908663,49.58788087379801,False,True
2023-11-22,86300.0,86700.0,85500.0,86700.0,1071700,87065.0,86798.59818011682,86872.45078832899,-73.85260821216798,24.899783056604814,False,True
2023-11-23,86700.0,86800.0,85500.0,85500.0,752200,87115.0,86598.81384471424,86770.78776697129,-171.9739222570497,-14.474958006126087,False,True
2023-11-24,85500.0,86000.0,85000.0,86000.0,793500,87165.0,86506.68863783513,86713.69237682526,-207.0037389901263,-52.98071420292614,False,True
2023-11-27,86000.0,86000.0,85100.0,85800.0,548000,87160.0,86397.96730893743,86646.0114600234,-248.04415108596731,-91.99340157953438,False,True
2023-11-28,85500.0,85900.0,84800.0,85800.0,926200,87110.0,86305.97233833167,86583.3439444661,-277.3716061344312,-129.06904249051377,False,True
2023-11-29,85400.0,85900.0,85100.0,85100.0,838100,86975.0,86120.43813243449,86473.4666152464,-353.02848281191837,-173.8609305547947,False,True
2023-11-30,85100.0,85400.0,84700.0,84700.0,986600,86760.0,85901.90918898303,86342.09871782074,-440.1895288377127,-227.12665021137832,False,True
2023-12-01,84900.0,85000.0,84100.0,85000.0,788700,86565.0,85763.15392913949,86242.68399798217,-479.5300688426796,-277.6073339376386,False,True
2023-12-04,85400.0,86200.0,84800.0,86000.0,978100,86390.0,85799.59178619496,86224.70740553904,-425.1156193440838,-307.10899101892767,False,True
2023-12-05,86000.0,86100.0,84800.0,85400.0,2339861,86245.0,85738.11612678034,86163.61796809171,-425.5018413113721,-330.78756107741657,False,True
2023-12-06,85300.0,86000.0,85000.0,85900.0,748000,86065.0,85763.0213380449,86144.09071119603,-381.06937315112737,-340.84392349215875,False,True
2023-12-07,85700.0,86000.0,85000.0,85200.0,2403460,85930.0,85676.40267065338,86074.15806592224,-397.7553952688613,-352.22621784749924,False,True
2023-12-08,85200.0,85500.0,85000.0,85000.0,1293000,85880.0,85572.34072132209,85994.59080177985,-422.2500804577576,-366.2309903695509,False,True
2023-12-11,85000.0,85300.0,84100.0,84200.0,2768100,85815.0,85361.21137958023,85861.65814979616,-500.4467702159309,-393.0741463388269,False,True
2023-12-12,84700.0,84700.0,84000.0,84200.0,1148400,85725.0,85182.56347502943,85738.57236092236,-556.0088858929375,-425.66109424964907,False,True
2023-12-13,84200.0,84500.0,83700.0,83700.0,2541000,85525.0,84954.47678656336,85587.56700085405,-633.0902142906853,-467.1469182578563,False,True
2023-12-15,84000.0,84400.0,82200.0,82200.0,2648401,85235.0,84530.71112709207,85336.6361119019,-805.9249848098261,-534.9025315682503,False,True
2023-12-18,82800.0,82900.0,81500.0,81500.0,2004600,85030.0,84064.44787677022,85052.44084435361,-987.9929675833846,-625.5206187712772,False,True
2023-12-19,81500.0,81500.0,80100.0,81200.0,2079400,84785.0,83623.76358803634,84767.07485588298,-1143.3112678466423,-729.0787485863502,False,True
2023-12-20,81200.0,81300.0,80500.0,81100.0,2014300,84510.0,83235.49226679998,84495.43968137313,-1259.947414573151,-835.2524817837104,False,True
2023-12-21,81000.0,81000.0,80300.0,80900.0,2148400,84220.0,82876.18576421536,84229.11081608623,-1352.9250518708723,-938.7869958011429,False,True
2023-12-22,80900.0,81100.0,80400.0,80900.0,1721800,83990.0,82572.1571851053,83982.51001489467,-1410.3528297893645,-1033.1001625987874,False,True
2023-12-25,80900.0,81800.0,80700.0,81800.0,1480000,83780.0,82453.36377201218,83820.84260638394,-1367.4788343717664,-1099.9758969533832,False,True
2023-12-26,82000.0,82800.0,82000.0,82800.0,1113200,83630.0,82506.69242247185,83745.22463554068,-1238.5322130688292,-1127.6871601764724,False,True
2023-12-27,82900.0,83200.0,82500.0,82700.0,1017700,83475.0,82536.43204978388,83667.8005884636,-1131.3685386797151,-1128.423435877121,False,True
2023-12-28,82700.0,83100.0,82400.0,82800.0,997500,83360.0,82576.98096520174,83603.51906339222,-1026.5380981904746,-1108.0463683397916,False,False
2023-12-29,83500.0,83900.0,80300.0,80300.0,1894326,83140.0,82226.67620132455,83358.81394758538,-1132.1377462608361,-1112.8646439240006,False,True
2024-01-02,82900.0,83600.0,82200.0,83500.0,1897801,83065.0,82422.57217035153,83369.27217369017,-946.700003338643,-1079.6317158069292,True,False
2024-01-03,83500.0,84500.0,82800.0,84500.0,1521100,82990.0,82742.17645183591,83453.02979045386,-710.8533386179479,-1005.8760403691329,True,False
2024-01-04,84500.0,86200.0,84000.0,85900.0,2734900,83015.0,83227.99545924577,83634.28684301283,-406.29138376706396,-885.9591090487191,True,False
2024-01-05,85900.0,86200.0,85700.0,86200.0,1328400,83030.0,83685.22692705411,83824.33966945633,-139.11274240221246,-736.5898357194178,True,False
2024-01-08,86300.0,86800.0,86300.0,86800.0,1652800,83110.0,84164.42278443041,84044.7589532003,119.66383123010746,-565.3391023295128,True,False
2024-01-09,86800.0,87900.0,86800.0,87800.0,2074500,83250.0,84723.74235605651,84322.92495666695,400.8173993895616,-372.10780198569796,True,False
2024-01-10,87800.0,89500.0,87200.0,89500.0,1840400,83515.0,85458.5512243555,84706.41199691384,752.1392274416576,-147.2583961002269,True,False
2024-01-11,89500.0,90000.0,88600.0,89300.0,1593100,83770.0,86049.54334368542,85046.67777492023,1002.8655687651917,82.76639687285683,True,False
2024-01-12,88100.0,89500.0,87400.0,88700.0,1954500,84020.0,86457.30590619535,85317.29423603724,1140.0116701581137,294.21545152990825,True,False
2024-01-15,89000.0,90100.0,88900.0,90000.0,2012200,84410.0,87002.33576678068,85664.16132966412,1338.1744371165696,503.00724864724054,True,False
2024-01-16,89000.0,90100.0,88900.0,90000.0,1433200,84835.0,87463.51487958366,85985.33456450382,1478.1803150798369,698.04186193376,True,False
2024-01-17,89000.0,91000.0,89000.0,90900.0,1676200,85320.0,87992.20489810925,86349.38385602205,1642.8210420872056,886.9976979644491,True,False
2024-01-19,91000.0,93000.0,90400.0,92600.0,1601800,85895.0,88701.09645224629,86812.39245927967,1888.7039929666207,1087.3389569648834,True,False
2024-01-22,93500.0,93500.0,92000.0,92000.0,1112300,86450.0,89208.62007497763,87196.65968451822,2011.9603904594114,1272.2632436637891,True,False
2024-01-23,92100.0,92400.0,90400.0,91500.0,1354901,86980.0,89561.14006344261,87515.42563381317,2045.7144296294427,1426.95348085692,True,False
2024-01-24,91600.0,92000.0,90900.0,91100.0,810700,87445.0,89797.8877459899,87780.94966093812,2016.9380850517773,1544.9504016958913,True,False
2024-01-25,91100.0,91600.0,90700.0,91000.0,601300,87855.0,89982.82809276068,88019.39783420197,1963.4302585587138,1628.646373068456,True,False
2024-01-26,91600.0,92000.0,91400.0,92000.0,1019100,88320.0,90293.16223233596,88314.25725389071,1978.904978445251,1698.698094143815,True,False
2024-01-29,91800.0,92000.0,90900.0,91200.0,804500,88740.0,90432.6757350535,88528.01597582473,1904.6597592287726,1739.8904271608067,True,False
2024-01-30,91200.0,91200.0,90100.0,91000.0,934600,89275.0,90519.95639119911,88711.12590354143,1808.8304876576876,1753.678439260183,True,False
2024-01-31,90600.0,90600.0,88500.0,88500.0,1019600,89525.0,90209.19386947616,88695.48694772355,1513.706921752615,1705.6841357586695,False,True
2024-02-01,88000.0,90200.0,88000.0,89800.0,668100,89790.0,90146.24096647982,88777.30272937365,1368.9382371061656,1638.334956028169,False,False
